{
  "url_mongo": "mongodb://localhost:27017/pgp",
  "url_site": "https://chat.skyit-webdesign.de",
  "port": 8000,
  "ssh": {
    "priv": "./cert/priv_node.pem",
    "pub": "./cert/pub_node.pem"
  }
}
